 [
    {
      "uid": "d32c229a-2f8c-4b72-8b12-0acfc5d87e3a",
      "line": {
        "color": "red"
      },
      "name": "USD",
      "type": "scatter",
      "xsrc": "sumon23:103:fcb93f",
      "x": [
        "2019-08-01",
        "2019-09-01",
        "2019-10-01",
        "2019-11-01",
        "2019-12-01",
        "2020-01-01",
        "2020-02-01",
        "2020-03-01",
        "2020-04-01",
        "2020-05-01",
        "2020-06-01",
        "2019-07-01",
        "2019-07-01",
        "2019-07-01"
      ],
      "ysrc": "sumon23:103:5134e4",
      "y": [
        182.004364903389,
        262.89519374934,
        273.006547355084,
        252.783840143596,
        262.89519374934,
        252.783840143596,
        252.783840143596,
        252.783840143596,
        242.672486537852,
        171.893011297645,
        262.89519374934,
        468265.963300134,
        127695.297161146,
        19154.2945741719
      ]
    },
    {
      "uid": "5687b24e-825b-460c-9654-409bc762c828",
      "line": {
        "color": "green"
      },
      "name": "BDT",
      "type": "scatter",
      "xsrc": "sumon23:103:fcb93f",
      "x": [
        "2019-08-01",
        "2019-09-01",
        "2019-10-01",
        "2019-11-01",
        "2019-12-01",
        "2020-01-01",
        "2020-02-01",
        "2020-03-01",
        "2020-04-01",
        "2020-05-01",
        "2020-06-01",
        "2019-07-01",
        "2019-07-01",
        "2019-07-01"
      ],
      "ysrc": "sumon23:103:274968",
      "y": [
        15288.3666518847,
        22083.1962749446,
        22932.549977827,
        21233.8425720621,
        22083.1962749446,
        21233.8425720621,
        21233.8425720621,
        21233.8425720621,
        20384.4888691796,
        14439.0129490022,
        22083.1962749446,
        39334340.9172113,
        10726404.9615363,
        1608960.74423044
      ]
    }
  ]